module codeberg.org/codeberg/pages

go 1.23.0

toolchain go1.23.5

require (
	code.gitea.io/sdk/gitea v0.20.0
	github.com/OrlovEvgeny/go-mcache v0.0.0-20200121124330-1a8195b34f3a
	github.com/creasty/defaults v1.8.0
	github.com/go-acme/lego/v4 v4.21.0
	github.com/go-sql-driver/mysql v1.8.1
	github.com/hashicorp/go-uuid v1.0.3
	github.com/hashicorp/golang-lru/v2 v2.0.7
	github.com/joho/godotenv v1.5.1
	github.com/lib/pq v1.10.9
	github.com/mattn/go-sqlite3 v1.14.24
	github.com/microcosm-cc/bluemonday v1.0.27
	github.com/pelletier/go-toml/v2 v2.2.3
	github.com/pires/go-proxyproto v0.8.0
	github.com/reugn/equalizer v0.0.0-20210216135016-a959c509d7ad
	github.com/rs/zerolog v1.33.0
	github.com/stretchr/testify v1.10.0
	github.com/urfave/cli/v2 v2.27.5
	golang.org/x/exp v0.0.0-20250210185358-939b2ce775ac
	xorm.io/xorm v1.3.9
)

require (
	cloud.google.com/go/auth v0.14.0 // indirect
	cloud.google.com/go/auth/oauth2adapt v0.2.7 // indirect
	cloud.google.com/go/compute/metadata v0.6.0 // indirect
	filippo.io/edwards25519 v1.1.0 // indirect
	github.com/42wim/httpsig v1.2.2 // indirect
	github.com/AdamSLevy/jsonrpc2/v14 v14.1.0 // indirect
	github.com/Azure/azure-sdk-for-go v68.0.0+incompatible // indirect
	github.com/Azure/azure-sdk-for-go/sdk/azcore v1.17.0 // indirect
	github.com/Azure/azure-sdk-for-go/sdk/azidentity v1.8.1 // indirect
	github.com/Azure/azure-sdk-for-go/sdk/internal v1.10.0 // indirect
	github.com/Azure/azure-sdk-for-go/sdk/resourcemanager/dns/armdns v1.2.0 // indirect
	github.com/Azure/azure-sdk-for-go/sdk/resourcemanager/privatedns/armprivatedns v1.3.0 // indirect
	github.com/Azure/azure-sdk-for-go/sdk/resourcemanager/resourcegraph/armresourcegraph v0.9.0 // indirect
	github.com/Azure/go-autorest v14.2.0+incompatible // indirect
	github.com/Azure/go-autorest/autorest v0.11.29 // indirect
	github.com/Azure/go-autorest/autorest/adal v0.9.24 // indirect
	github.com/Azure/go-autorest/autorest/azure/auth v0.5.13 // indirect
	github.com/Azure/go-autorest/autorest/azure/cli v0.4.6 // indirect
	github.com/Azure/go-autorest/autorest/date v0.3.0 // indirect
	github.com/Azure/go-autorest/autorest/to v0.4.0 // indirect
	github.com/Azure/go-autorest/logger v0.2.1 // indirect
	github.com/Azure/go-autorest/tracing v0.6.0 // indirect
	github.com/AzureAD/microsoft-authentication-library-for-go v1.3.2 // indirect
	github.com/OpenDNS/vegadns2client v0.0.0-20180418235048-a3fa4a771d87 // indirect
	github.com/akamai/AkamaiOPEN-edgegrid-golang v1.2.2 // indirect
	github.com/aliyun/alibaba-cloud-sdk-go v1.63.83 // indirect
	github.com/aws/aws-sdk-go-v2 v1.33.0 // indirect
	github.com/aws/aws-sdk-go-v2/config v1.29.0 // indirect
	github.com/aws/aws-sdk-go-v2/credentials v1.17.53 // indirect
	github.com/aws/aws-sdk-go-v2/feature/ec2/imds v1.16.24 // indirect
	github.com/aws/aws-sdk-go-v2/internal/configsources v1.3.28 // indirect
	github.com/aws/aws-sdk-go-v2/internal/endpoints/v2 v2.6.28 // indirect
	github.com/aws/aws-sdk-go-v2/internal/ini v1.8.1 // indirect
	github.com/aws/aws-sdk-go-v2/service/internal/accept-encoding v1.12.1 // indirect
	github.com/aws/aws-sdk-go-v2/service/internal/presigned-url v1.12.9 // indirect
	github.com/aws/aws-sdk-go-v2/service/lightsail v1.42.10 // indirect
	github.com/aws/aws-sdk-go-v2/service/route53 v1.48.1 // indirect
	github.com/aws/aws-sdk-go-v2/service/sso v1.24.10 // indirect
	github.com/aws/aws-sdk-go-v2/service/ssooidc v1.28.9 // indirect
	github.com/aws/aws-sdk-go-v2/service/sts v1.33.8 // indirect
	github.com/aws/smithy-go v1.22.1 // indirect
	github.com/aymerick/douceur v0.2.0 // indirect
	github.com/benbjohnson/clock v1.3.5 // indirect
	github.com/boombuler/barcode v1.0.2 // indirect
	github.com/cenkalti/backoff/v4 v4.3.0 // indirect
	github.com/civo/civogo v0.3.92 // indirect
	github.com/cloudflare/cloudflare-go v0.114.0 // indirect
	github.com/cpu/goacmedns v0.1.1 // indirect
	github.com/cpuguy83/go-md2man/v2 v2.0.6 // indirect
	github.com/davecgh/go-spew v1.1.2-0.20180830191138-d8f796af33cc // indirect
	github.com/davidmz/go-pageant v1.0.2 // indirect
	github.com/dimchansky/utfbom v1.1.1 // indirect
	github.com/dnsimple/dnsimple-go v1.7.0 // indirect
	github.com/exoscale/egoscale/v3 v3.1.8 // indirect
	github.com/fatih/structs v1.1.0 // indirect
	github.com/felixge/httpsnoop v1.0.4 // indirect
	github.com/fsnotify/fsnotify v1.8.0 // indirect
	github.com/fxamacker/cbor/v2 v2.7.0 // indirect
	github.com/gabriel-vasile/mimetype v1.4.8 // indirect
	github.com/ghodss/yaml v1.0.0 // indirect
	github.com/go-errors/errors v1.5.1 // indirect
	github.com/go-fed/httpsig v1.1.0 // indirect
	github.com/go-jose/go-jose/v4 v4.0.4 // indirect
	github.com/go-logr/logr v1.4.2 // indirect
	github.com/go-logr/stdr v1.2.2 // indirect
	github.com/go-playground/locales v0.14.1 // indirect
	github.com/go-playground/universal-translator v0.18.1 // indirect
	github.com/go-playground/validator/v10 v10.24.0 // indirect
	github.com/go-resty/resty/v2 v2.16.3 // indirect
	github.com/go-viper/mapstructure/v2 v2.2.1 // indirect
	github.com/goccy/go-json v0.10.4 // indirect
	github.com/gofrs/flock v0.12.1 // indirect
	github.com/gogo/protobuf v1.3.2 // indirect
	github.com/golang-jwt/jwt/v4 v4.5.1 // indirect
	github.com/golang-jwt/jwt/v5 v5.2.1 // indirect
	github.com/golang/snappy v0.0.4 // indirect
	github.com/google/go-querystring v1.1.0 // indirect
	github.com/google/gofuzz v1.2.0 // indirect
	github.com/google/s2a-go v0.1.9 // indirect
	github.com/google/uuid v1.6.0 // indirect
	github.com/googleapis/enterprise-certificate-proxy v0.3.4 // indirect
	github.com/googleapis/gax-go/v2 v2.14.1 // indirect
	github.com/gophercloud/gophercloud v1.14.1 // indirect
	github.com/gophercloud/utils v0.0.0-20231010081019-80377eca5d56 // indirect
	github.com/gorilla/css v1.0.1 // indirect
	github.com/hashicorp/errwrap v1.1.0 // indirect
	github.com/hashicorp/go-cleanhttp v0.5.2 // indirect
	github.com/hashicorp/go-multierror v1.1.1 // indirect
	github.com/hashicorp/go-retryablehttp v0.7.7 // indirect
	github.com/hashicorp/go-version v1.7.0 // indirect
	github.com/hashicorp/hcl v1.0.0 // indirect
	github.com/huaweicloud/huaweicloud-sdk-go-v3 v0.1.132 // indirect
	github.com/iij/doapi v0.0.0-20190504054126-0bbf12d6d7df // indirect
	github.com/infobloxopen/infoblox-go-client v1.1.1 // indirect
	github.com/jmespath/go-jmespath v0.4.0 // indirect
	github.com/json-iterator/go v1.1.12 // indirect
	github.com/k0kubun/go-ansi v0.0.0-20180517002512-3bf9e2903213 // indirect
	github.com/kolo/xmlrpc v0.0.0-20220921171641-a4b6fa1dd06b // indirect
	github.com/kylelemons/godebug v1.1.0 // indirect
	github.com/labbsr0x/bindman-dns-webhook v1.0.2 // indirect
	github.com/labbsr0x/goh v1.0.1 // indirect
	github.com/leodido/go-urn v1.4.0 // indirect
	github.com/linode/linodego v1.46.0 // indirect
	github.com/liquidweb/liquidweb-cli v0.7.0 // indirect
	github.com/liquidweb/liquidweb-go v1.6.4 // indirect
	github.com/magiconair/properties v1.8.9 // indirect
	github.com/mattn/go-colorable v0.1.14 // indirect
	github.com/mattn/go-isatty v0.0.20 // indirect
	github.com/miekg/dns v1.1.62 // indirect
	github.com/mimuret/golang-iij-dpf v0.9.1 // indirect
	github.com/mitchellh/go-homedir v1.1.0 // indirect
	github.com/mitchellh/mapstructure v1.5.0 // indirect
	github.com/modern-go/concurrent v0.0.0-20180306012644-bacd9c7ef1dd // indirect
	github.com/modern-go/reflect2 v1.0.2 // indirect
	github.com/namedotcom/go v0.0.0-20180403034216-08470befbe04 // indirect
	github.com/nrdcg/auroradns v1.1.0 // indirect
	github.com/nrdcg/bunny-go v0.0.0-20240207213615-dde5bf4577a3 // indirect
	github.com/nrdcg/desec v0.10.0 // indirect
	github.com/nrdcg/dnspod-go v0.4.0 // indirect
	github.com/nrdcg/freemyip v0.3.0 // indirect
	github.com/nrdcg/goinwx v0.10.0 // indirect
	github.com/nrdcg/mailinabox v0.2.0 // indirect
	github.com/nrdcg/namesilo v0.2.1 // indirect
	github.com/nrdcg/nodion v0.1.0 // indirect
	github.com/nrdcg/porkbun v0.4.0 // indirect
	github.com/nzdjb/go-metaname v1.0.0 // indirect
	github.com/opentracing/opentracing-go v1.2.1-0.20220228012449-10b1cf09e00b // indirect
	github.com/oracle/oci-go-sdk/v65 v65.81.2 // indirect
	github.com/ovh/go-ovh v1.6.0 // indirect
	github.com/patrickmn/go-cache v2.1.0+incompatible // indirect
	github.com/peterhellberg/link v1.2.0 // indirect
	github.com/pkg/browser v0.0.0-20240102092130-5ac0b6a4141c // indirect
	github.com/pkg/errors v0.9.1 // indirect
	github.com/pmezard/go-difflib v1.0.1-0.20181226105442-5d4384ee4fb2 // indirect
	github.com/pquerna/otp v1.4.0 // indirect
	github.com/regfish/regfish-dnsapi-go v0.1.1 // indirect
	github.com/russross/blackfriday/v2 v2.1.0 // indirect
	github.com/sacloud/api-client-go v0.2.10 // indirect
	github.com/sacloud/go-http v0.1.9 // indirect
	github.com/sacloud/iaas-api-go v1.14.0 // indirect
	github.com/sacloud/packages-go v0.0.11 // indirect
	github.com/sagikazarmark/locafero v0.7.0 // indirect
	github.com/sagikazarmark/slog-shim v0.1.0 // indirect
	github.com/scaleway/scaleway-sdk-go v1.0.0-beta.30 // indirect
	github.com/selectel/domains-go v1.1.0 // indirect
	github.com/selectel/go-selvpcclient/v3 v3.2.1 // indirect
	github.com/shopspring/decimal v1.4.0 // indirect
	github.com/sirupsen/logrus v1.9.3 // indirect
	github.com/smartystreets/go-aws-auth v0.0.0-20180515143844-0c1422d1fdb9 // indirect
	github.com/softlayer/softlayer-go v1.1.7 // indirect
	github.com/softlayer/xmlrpc v0.0.0-20200409220501-5f089df7cb7e // indirect
	github.com/sony/gobreaker v1.0.0 // indirect
	github.com/sourcegraph/conc v0.3.0 // indirect
	github.com/spf13/afero v1.12.0 // indirect
	github.com/spf13/cast v1.7.1 // indirect
	github.com/spf13/pflag v1.0.5 // indirect
	github.com/spf13/viper v1.19.0 // indirect
	github.com/stretchr/objx v0.5.2 // indirect
	github.com/subosito/gotenv v1.6.0 // indirect
	github.com/syndtr/goleveldb v1.0.0 // indirect
	github.com/tencentcloud/tencentcloud-sdk-go/tencentcloud/common v1.0.1084 // indirect
	github.com/tencentcloud/tencentcloud-sdk-go/tencentcloud/dnspod v1.0.1084 // indirect
	github.com/tjfoc/gmsm v1.4.1 // indirect
	github.com/transip/gotransip/v6 v6.26.0 // indirect
	github.com/ultradns/ultradns-go-sdk v1.8.0-20241010134910-243eeec // indirect
	github.com/vinyldns/go-vinyldns v0.9.16 // indirect
	github.com/volcengine/volc-sdk-golang v1.0.193 // indirect
	github.com/vultr/govultr/v3 v3.14.1 // indirect
	github.com/x448/float16 v0.8.4 // indirect
	github.com/xrash/smetrics v0.0.0-20240521201337-686a1a2994c1 // indirect
	github.com/yandex-cloud/go-genproto v0.0.0-20241220122821-aeb3b05efd1c // indirect
	github.com/yandex-cloud/go-sdk v0.0.0-20241220131134-2393e243c134 // indirect
	go.mongodb.org/mongo-driver v1.17.2 // indirect
	go.opentelemetry.io/auto/sdk v1.1.0 // indirect
	go.opentelemetry.io/contrib/instrumentation/net/http/otelhttp v0.58.0 // indirect
	go.opentelemetry.io/otel v1.34.0 // indirect
	go.opentelemetry.io/otel/metric v1.34.0 // indirect
	go.opentelemetry.io/otel/trace v1.34.0 // indirect
	go.uber.org/atomic v1.11.0 // indirect
	go.uber.org/multierr v1.11.0 // indirect
	go.uber.org/ratelimit v0.3.1 // indirect
	golang.org/x/crypto v0.33.0 // indirect
	golang.org/x/mod v0.23.0 // indirect
	golang.org/x/net v0.35.0 // indirect
	golang.org/x/oauth2 v0.25.0 // indirect
	golang.org/x/sync v0.11.0 // indirect
	golang.org/x/sys v0.30.0 // indirect
	golang.org/x/text v0.22.0 // indirect
	golang.org/x/time v0.9.0 // indirect
	golang.org/x/tools v0.30.0 // indirect
	google.golang.org/api v0.217.0 // indirect
	google.golang.org/genproto v0.0.0-20250115164207-1a7da9e5054f // indirect
	google.golang.org/genproto/googleapis/api v0.0.0-20250115164207-1a7da9e5054f // indirect
	google.golang.org/genproto/googleapis/rpc v0.0.0-20250115164207-1a7da9e5054f // indirect
	google.golang.org/grpc v1.69.4 // indirect
	google.golang.org/protobuf v1.36.3 // indirect
	gopkg.in/inf.v0 v0.9.1 // indirect
	gopkg.in/ini.v1 v1.67.0 // indirect
	gopkg.in/ns1/ns1-go.v2 v2.13.0 // indirect
	gopkg.in/yaml.v2 v2.4.0 // indirect
	gopkg.in/yaml.v3 v3.0.1 // indirect
	k8s.io/api v0.32.1 // indirect
	k8s.io/apimachinery v0.32.1 // indirect
	k8s.io/klog/v2 v2.130.1 // indirect
	k8s.io/utils v0.0.0-20241210054802-24370beab758 // indirect
	sigs.k8s.io/json v0.0.0-20241014173422-cfa47c3a1cc8 // indirect
	sigs.k8s.io/structured-merge-diff/v4 v4.5.0 // indirect
	sigs.k8s.io/yaml v1.4.0 // indirect
	xorm.io/builder v0.3.13 // indirect
)
